[    {"name":"Jani","country":"Norway"},
      {"name":"shashi","country":"Norway"},
    {"name":"rakesh","country":"Norway"},
    {"name":"raju","country":"Norway"},
      {"name":"ravi","country":"Norway"}

  ]
